myblog - Train/Valid
…
set.seed(2021)
x <- sample(seq(0,1,by=0.05),
            100, replace=TRUE)

y <- sin(2*pi*x) +
  rnorm(length(x), sd=0.2)

data_for_learning <- tibble(x=x, y=y)
data_for_learning

# A tibble: 100 × 2
       x      y
   <dbl>  <dbl>
 1  0.3   0.921
 2  0.25  1.24 
 3  0.65 -0.812
 4  0.3   0.592
 5  0.55 -0.257
 6  0.95 -0.210
 7  0.25  0.848
 8  0.25  1.11 
 9  0.25  0.880
10  0.65 -0.775
# … with 90 more rows
…
